Natural Language Processing
…
quanteda  [homepage] [CRAN]

a modern end-to-end framework for working with text data – has a nice interface and seems like decent performance, but hasn't gained a lot of traction in the R community

tidytext  [intro vignette] [CRAN]

excellent for learning, esp. with dplyr:: and Robinson & Silge (2016)

slow and therefore not a good choice for production-grade models

tm  [intro vignette] [CRAN]

an older framework – I haven't used it much (anyone??)

## # A tibble: 5,000 x 5
##     Rank Word  PartOfSpeech Frequency Dispersion
##    <int> <chr> <chr>            <int>      <dbl>
##  1     1 the   a             22038615      0.980
##  2     2 be    v             12545825      0.970
##  3     3 and   c             10741073      0.990
##  4     4 of    i             10343885      0.970
##  5     5 a     a             10144200      0.980
##  6     6 in    i              6996437      0.980
##  7     7 to    t              6332195      0.980
##  8     8 have  v              4303955      0.970
##  9     9 to    i              3856916      0.990
## 10    10 it    p              3872477      0.960
## # ... with 4,990 more rows
…
